module nononsensecode.com/auth

go 1.18

require (
	github.com/aws/aws-sdk-go v1.44.1
	github.com/aws/aws-secretsmanager-caching-go v1.1.0
	github.com/go-chi/chi v1.5.4
	github.com/go-chi/chi/v5 v5.0.7
	github.com/go-chi/cors v1.2.1
	github.com/go-chi/render v1.0.1
	github.com/go-sql-driver/mysql v1.6.0
	github.com/jmoiron/sqlx v1.3.5
	github.com/mattn/go-sqlite3 v1.14.6
	github.com/sirupsen/logrus v1.8.1
	github.com/spf13/cobra v1.4.0
	github.com/spf13/viper v1.11.0
	go.uber.org/multierr v1.8.0
)

require (
	github.com/fsnotify/fsnotify v1.5.1 // indirect
	github.com/hashicorp/hcl v1.0.0 // indirect
	github.com/inconshreveable/mousetrap v1.0.0 // indirect
	github.com/jmespath/go-jmespath v0.4.0 // indirect
	github.com/magiconair/properties v1.8.6 // indirect
	github.com/mitchellh/mapstructure v1.4.3 // indirect
	github.com/pelletier/go-toml v1.9.4 // indirect
	github.com/pelletier/go-toml/v2 v2.0.0-beta.8 // indirect
	github.com/spf13/afero v1.8.2 // indirect
	github.com/spf13/cast v1.4.1 // indirect
	github.com/spf13/jwalterweatherman v1.1.0 // indirect
	github.com/spf13/pflag v1.0.5 // indirect
	github.com/subosito/gotenv v1.2.0 // indirect
	go.uber.org/atomic v1.7.0 // indirect
	golang.org/x/sys v0.0.0-20220412211240-33da011f77ad // indirect
	golang.org/x/text v0.3.7 // indirect
	gopkg.in/ini.v1 v1.66.4 // indirect
	gopkg.in/yaml.v2 v2.4.0 // indirect
	gopkg.in/yaml.v3 v3.0.0-20210107192922-496545a6307b // indirect
)
